{
    "locations": [
      {
        "code": "ARP",
        "name": "Aragip",
        "type": "airport",
        "cityId": null,
        "country": {
          "code": "PG",
          "name": "PAPUA NEW GUINEA"
        }
      },
      {
        "code": "ARR",
        "name": "Alto Rio Senguerr",
        "type": "airport",
        "cityId": null,
        "country": {
          "code": "AR",
          "name": "ARGENTINA"
        }
      },
      {
        "code": "ARS",
        "name": "Aragarcas",
        "type": "airport",
        "cityId": null,
        "country": {
          "code": "BR",
          "name": "BRAZIL"
        }
      },
      {
        "code": "ART",
        "name": "Watertown",
        "type": "airport",
        "cityId": null,
        "country": {
          "code": "US",
          "name": "USA"
        }
      },
      {
        "code": "ARU",
        "name": "Aracatuba",
        "type": "airport",
        "cityId": null,
        "country": {
          "code": "BR",
          "name": "BRAZIL"
        }
      },
      {
        "code": "ARV",
        "name": "Minocqua",
        "type": "airport",
        "cityId": null,
        "country": {
          "code": "US",
          "name": "USA"
        }
      },
      {
        "code": "ARW",
        "name": "Arad",
        "type": "airport",
        "cityId": null,
        "country": {
          "code": "RO",
          "name": "ROMANIA"
        }
      },
      {
        "code": "ARX",
        "name": "Asbury Park",
        "type": "airport",
        "cityId": null,
        "country": {
          "code": "US",
          "name": "USA"
        }
      },
      {
        "code": "ARY",
        "name": "Ararat",
        "type": "airport",
        "cityId": null,
        "country": {
          "code": "AU",
          "name": "AUSTRALIA"
        }
      },
      {
        "code": "ARZ",
        "name": "N Zeto",
        "type": "airport",
        "cityId": null,
        "country": {
          "code": "AO",
          "name": "ANGOLA"
        }
      },
      {
        "code": "ASA",
        "name": "Assab",
        "type": "airport",
        "cityId": null,
        "country": {
          "code": "ET",
          "name": "ETHIOPIA"
        }
      },
      {
        "code": "ASB",
        "name": "Ashkhabad",
        "type": "airport",
        "cityId": null,
        "country": {
          "code": "TM",
          "name": "TURKMENISTAN"
        }
      },
      {
        "code": "ASC",
        "name": "Ascension",
        "type": "airport",
        "cityId": null,
        "country": {
          "code": "BO",
          "name": "BOLIVIA"
        }
      },
      {
        "code": "ASD",
        "name": "Andros Town",
        "type": "airport",
        "cityId": null,
        "country": {
          "code": "BS",
          "name": "BAHAMAS"
        }
      },
      {
        "code": "ASE",
        "name": "Aspen",
        "type": "airport",
        "cityId": null,
        "country": {
          "code": "US",
          "name": "USA"
        }
      },
      {
        "code": "ASF",
        "name": "Astrakhan",
        "type": "airport",
        "cityId": null,
        "country": {
          "code": "RU",
          "name": "RUSSIAN FEDERATION"
        }
      },
      {
        "code": "ASG",
        "name": "Ashburton",
        "type": "airport",
        "cityId": null,
        "country": {
          "code": "NZ",
          "name": "NEW ZEALAND"
        }
      },
      {
        "code": "ASI",
        "name": "Georgetown/st.helena",
        "type": "airport",
        "cityId": null,
        "country": {
          "code": "GB",
          "name": "UNITED KINGDOM"
        }
      },
      {
        "code": "ASJ",
        "name": "Amami O Shima",
        "type": "airport",
        "cityId": null,
        "country": {
          "code": "JP",
          "name": "JAPAN"
        }
      },
      {
        "code": "ASK",
        "name": "Yamoussoukro",
        "type": "airport",
        "cityId": null,
        "country": {
          "code": "CI",
          "name": "Cote d'Ivoire"
        }
      },
      {
        "code": "ASM",
        "name": "Asmara",
        "type": "airport",
        "cityId": null,
        "country": {
          "code": "ET",
          "name": "ETHIOPIA"
        }
      },
      {
        "code": "ASO",
        "name": "Asosa",
        "type": "airport",
        "cityId": null,
        "country": {
          "code": "ET",
          "name": "ETHIOPIA"
        }
      },
      {
        "code": "ASP",
        "name": "Alice Springs",
        "type": "airport",
        "cityId": null,
        "country": {
          "code": "AU",
          "name": "AUSTRALIA"
        }
      },
      {
        "code": "ASQ",
        "name": "Austin",
        "type": "airport",
        "cityId": null,
        "country": {
          "code": "US",
          "name": "USA"
        }
      },
      {
        "code": "ASR",
        "name": "Kayseri",
        "type": "airport",
        "cityId": null,
        "country": {
          "code": "TR",
          "name": "TURKEY"
        }
      },
      {
        "code": "AST",
        "name": "Astoria",
        "type": "airport",
        "cityId": null,
        "country": {
          "code": "US",
          "name": "USA"
        }
      },
      {
        "code": "ASU",
        "name": "Asuncion",
        "type": "airport",
        "cityId": null,
        "country": {
          "code": "PY",
          "name": "PARAGUAY"
        }
      },
      {
        "code": "ASV",
        "name": "Amboseli",
        "type": "airport",
        "cityId": null,
        "country": {
          "code": "KE",
          "name": "KENYA"
        }
      },
      {
        "code": "ASW",
        "name": "Aswan",
        "type": "airport",
        "cityId": null,
        "country": {
          "code": "EG",
          "name": "EGYPT"
        }
      },
      {
        "code": "ASX",
        "name": "Ashland",
        "type": "airport",
        "cityId": null,
        "country": {
          "code": "US",
          "name": "USA"
        }
      },
      {
        "code": "ASZ",
        "name": "ASZ",
        "type": "airport",
        "cityId": null,
        "country": {
          "code": "PG",
          "name": "PAPUA NEW GUINEA"
        }
      },
      {
        "code": "ATA",
        "name": "Anta",
        "type": "airport",
        "cityId": null,
        "country": {
          "code": "PE",
          "name": "PERU"
        }
      },
      {
        "code": "ATB",
        "name": "Atbara",
        "type": "airport",
        "cityId": null,
        "country": {
          "code": "SD",
          "name": "SUDAN"
        }
      },
      {
        "code": "ATC",
        "name": "Arthurs Town",
        "type": "airport",
        "cityId": null,
        "country": {
          "code": "BS",
          "name": "BAHAMAS"
        }
      },
      {
        "code": "ATD",
        "name": "Atoifi",
        "type": "airport",
        "cityId": null,
        "country": {
          "code": "SB",
          "name": "SOLOMON ISLANDS"
        }
      },
      {
        "code": "ATE",
        "name": "Antlers",
        "type": "airport",
        "cityId": null,
        "country": {
          "code": "US",
          "name": "USA"
        }
      },
      {
        "code": "ATF",
        "name": "Ambato",
        "type": "airport",
        "cityId": null,
        "country": {
          "code": "EC",
          "name": "ECUADOR"
        }
      },
      {
        "code": "ATG",
        "name": "Atalaya",
        "type": "airport",
        "cityId": null,
        "country": {
          "code": "PK",
          "name": "PAKISTAN"
        }
      },
      {
        "code": "ATH",
        "name": "Athens",
        "type": "airport",
        "cityId": null,
        "country": {
          "code": "GR",
          "name": "GREECE"
        }
      },
      {
        "code": "ATI",
        "name": "Artigas",
        "type": "airport",
        "cityId": null,
        "country": {
          "code": "UY",
          "name": "Uruguay"
        }
      },
      {
        "code": "ATJ",
        "name": "Antsirabe",
        "type": "airport",
        "cityId": null,
        "country": {
          "code": "MG",
          "name": "MADAGASCAR"
        }
      },
      {
        "code": "ATK",
        "name": "Atqasuk",
        "type": "airport",
        "cityId": null,
        "country": {
          "code": "US",
          "name": "USA"
        }
      },
      {
        "code": "ATL",
        "name": "Atlanta W.B. Hartsfield",
        "type": "airport",
        "cityId": null,
        "country": {
          "code": "US",
          "name": "USA"
        }
      },
      {
        "code": "ATM",
        "name": "Altamira",
        "type": "airport",
        "cityId": null,
        "country": {
          "code": "BR",
          "name": "BRAZIL"
        }
      },
      {
        "code": "ATN",
        "name": "Namatanai",
        "type": "airport",
        "cityId": null,
        "country": {
          "code": "PG",
          "name": "PAPUA NEW GUINEA"
        }
      },
      {
        "code": "ATP",
        "name": "Aitape",
        "type": "airport",
        "cityId": null,
        "country": {
          "code": "PG",
          "name": "PAPUA NEW GUINEA"
        }
      },
      {
        "code": "ATQ",
        "name": "Amritsar",
        "type": "airport",
        "cityId": null,
        "country": {
          "code": "IN",
          "name": "INDIA INCL ANDAMAN"
        }
      },
      {
        "code": "ATR",
        "name": "Atar",
        "type": "airport",
        "cityId": null,
        "country": {
          "code": "MR",
          "name": "MAURITANIA"
        }
      },
      {
        "code": "ATS",
        "name": "Artesia",
        "type": "airport",
        "cityId": null,
        "country": {
          "code": "US",
          "name": "USA"
        }
      },
      {
        "code": "ATT",
        "name": "Atmautluak",
        "type": "airport",
        "cityId": null,
        "country": {
          "code": "US",
          "name": "USA"
        }
      },
      {
        "code": "ATU",
        "name": "Attu Island",
        "type": "airport",
        "cityId": null,
        "country": {
          "code": "US",
          "name": "USA"
        }
      },
      {
        "code": "ATV",
        "name": "Ati",
        "type": "airport",
        "cityId": null,
        "country": {
          "code": "TD",
          "name": "Chad"
        }
      },
      {
        "code": "ATW",
        "name": "Appleton",
        "type": "airport",
        "cityId": null,
        "country": {
          "code": "US",
          "name": "USA"
        }
      },
      {
        "code": "ATX",
        "name": "Atbasar",
        "type": "airport",
        "cityId": null,
        "country": {
          "code": "KZ",
          "name": "KAZAKHSTAN"
        }
      },
      {
        "code": "ATY",
        "name": "Watertown",
        "type": "airport",
        "cityId": null,
        "country": {
          "code": "US",
          "name": "USA"
        }
      },
      {
        "code": "ATZ",
        "name": "Assiut",
        "type": "airport",
        "cityId": null,
        "country": {
          "code": "EG",
          "name": "EGYPT"
        }
      },
      {
        "code": "AUA",
        "name": "Aruba",
        "type": "airport",
        "cityId": null,
        "country": {
          "code": "AW",
          "name": "ARUBA"
        }
      },
      {
        "code": "AUB",
        "name": "Itauba",
        "type": "airport",
        "cityId": null,
        "country": {
          "code": "BR",
          "name": "BRAZIL"
        }
      },
      {
        "code": "AUC",
        "name": "Arauca",
        "type": "airport",
        "cityId": null,
        "country": {
          "code": "CO",
          "name": "COLOMBIA"
        }
      },
      {
        "code": "AUD",
        "name": "Augustus Downs",
        "type": "airport",
        "cityId": null,
        "country": {
          "code": "AU",
          "name": "AUSTRALIA"
        }
      },
      {
        "code": "AUE",
        "name": "Abu Rudeis",
        "type": "airport",
        "cityId": null,
        "country": {
          "code": "EG",
          "name": "EGYPT"
        }
      },
      {
        "code": "AUF",
        "name": "AUF",
        "type": "airport",
        "cityId": null,
        "country": {
          "code": "FR",
          "name": "FRANCE"
        }
      },
      {
        "code": "AUG",
        "name": "Augusta",
        "type": "airport",
        "cityId": null,
        "country": {
          "code": "US",
          "name": "USA"
        }
      },
      {
        "code": "AUH",
        "name": "Abu Dhabi",
        "type": "airport",
        "cityId": null,
        "country": {
          "code": "AE",
          "name": "UNITED ARAB EMIRATES"
        }
      },
      {
        "code": "AUI",
        "name": "Aua Island",
        "type": "airport",
        "cityId": null,
        "country": {
          "code": "PG",
          "name": "PAPUA NEW GUINEA"
        }
      },
      {
        "code": "AUJ",
        "name": "Ambunti",
        "type": "airport",
        "cityId": null,
        "country": {
          "code": "PG",
          "name": "PAPUA NEW GUINEA"
        }
      },
      {
        "code": "AUK",
        "name": "Alakanuk",
        "type": "airport",
        "cityId": null,
        "country": {
          "code": "US",
          "name": "USA"
        }
      },
      {
        "code": "AUL",
        "name": "Aur Island",
        "type": "airport",
        "cityId": null,
        "country": {
          "code": "MH",
          "name": "Marshall Islands"
        }
      },
      {
        "code": "AUO",
        "name": "Auburn",
        "type": "airport",
        "cityId": null,
        "country": {
          "code": "US",
          "name": "USA"
        }
      },
      {
        "code": "AUP",
        "name": "Agaun",
        "type": "airport",
        "cityId": null,
        "country": {
          "code": "PG",
          "name": "PAPUA NEW GUINEA"
        }
      },
      {
        "code": "AUQ",
        "name": "Atuona",
        "type": "airport",
        "cityId": null,
        "country": {
          "code": "PF",
          "name": "French Polynesia"
        }
      },
      {
        "code": "AUR",
        "name": "Aurillac",
        "type": "airport",
        "cityId": null,
        "country": {
          "code": "FR",
          "name": "FRANCE"
        }
      },
      {
        "code": "AUS",
        "name": "Austin",
        "type": "airport",
        "cityId": null,
        "country": {
          "code": "US",
          "name": "USA"
        }
      },
      {
        "code": "AUT",
        "name": "Atauro",
        "type": "airport",
        "cityId": null,
        "country": {
          "code": "ID",
          "name": "INDONESIA"
        }
      },
      {
        "code": "AUU",
        "name": "Aurukun Mission",
        "type": "airport",
        "cityId": null,
        "country": {
          "code": "AU",
          "name": "AUSTRALIA"
        }
      },
      {
        "code": "AUV",
        "name": "AUV",
        "type": "airport",
        "cityId": null,
        "country": {
          "code": "PG",
          "name": "PAPUA NEW GUINEA"
        }
      },
      {
        "code": "AUW",
        "name": "Wausau",
        "type": "airport",
        "cityId": null,
        "country": {
          "code": "US",
          "name": "USA"
        }
      },
      {
        "code": "AUX",
        "name": "Araguaina",
        "type": "airport",
        "cityId": null,
        "country": {
          "code": "BR",
          "name": "BRAZIL"
        }
      },
      {
        "code": "AUY",
        "name": "Aneityum",
        "type": "airport",
        "cityId": null,
        "country": {
          "code": "VU",
          "name": "Vanuatu"
        }
      },
      {
        "code": "AUZ",
        "name": "Aurora",
        "type": "airport",
        "cityId": null,
        "country": {
          "code": "US",
          "name": "USA"
        }
      },
      {
        "code": "AVB",
        "name": "Aviano",
        "type": "airport",
        "cityId": null,
        "country": {
          "code": "IT",
          "name": "ITALY"
        }
      },
      {
        "code": "AVI",
        "name": "Ciego De Avila",
        "type": "airport",
        "cityId": null,
        "country": {
          "code": "CU",
          "name": "CUBA"
        }
      },
      {
        "code": "AVK",
        "name": "Arvaikheer",
        "type": "airport",
        "cityId": null,
        "country": {
          "code": "MN",
          "name": "MONGOLIA"
        }
      },
      {
        "code": "AVL",
        "name": "Asheville",
        "type": "airport",
        "cityId": null,
        "country": {
          "code": "US",
          "name": "USA"
        }
      },
      {
        "code": "AVN",
        "name": "Avignon",
        "type": "airport",
        "cityId": null,
        "country": {
          "code": "FR",
          "name": "FRANCE"
        }
      },
      {
        "code": "AVP",
        "name": "Wilkes-barre/scranton",
        "type": "airport",
        "cityId": null,
        "country": {
          "code": "US",
          "name": "USA"
        }
      },
      {
        "code": "AVU",
        "name": "Avu Avu",
        "type": "airport",
        "cityId": null,
        "country": {
          "code": "SB",
          "name": "SOLOMON ISLANDS"
        }
      },
      {
        "code": "AVV",
        "name": "Avalon",
        "type": "airport",
        "cityId": null,
        "country": {
          "code": "AU",
          "name": "AUSTRALIA"
        }
      },
      {
        "code": "AVW",
        "name": "Tucson Avra Valley",
        "type": "airport",
        "cityId": null,
        "country": {
          "code": "US",
          "name": "USA"
        }
      },
      {
        "code": "AVX",
        "name": "Catalina Island",
        "type": "airport",
        "cityId": null,
        "country": {
          "code": "US",
          "name": "USA"
        }
      },
      {
        "code": "AWA",
        "name": "Awassa",
        "type": "airport",
        "cityId": null,
        "country": {
          "code": "ET",
          "name": "ETHIOPIA"
        }
      },
      {
        "code": "AWB",
        "name": "Awaba",
        "type": "airport",
        "cityId": null,
        "country": {
          "code": "PG",
          "name": "PAPUA NEW GUINEA"
        }
      },
      {
        "code": "AWD",
        "name": "Aniwa",
        "type": "airport",
        "cityId": null,
        "country": {
          "code": "VU",
          "name": "Vanuatu"
        }
      },
      {
        "code": "AWH",
        "name": "Awareh",
        "type": "airport",
        "cityId": null,
        "country": {
          "code": "ET",
          "name": "ETHIOPIA"
        }
      },
      {
        "code": "AWK",
        "name": "Wake Island",
        "type": "airport",
        "cityId": null,
        "country": {
          "code": "UM",
          "name": "United States Minor Outlying Island"
        }
      },
      {
        "code": "AWN",
        "name": "Alton Downs",
        "type": "airport",
        "cityId": null,
        "country": {
          "code": "AU",
          "name": "AUSTRALIA"
        }
      },
      {
        "code": "AWZ",
        "name": "Ahwaz",
        "type": "airport",
        "cityId": null,
        "country": {
          "code": "IR",
          "name": "IRAN ISLAMIC REP. OF"
        }
      },
      {
        "code": "AXA",
        "name": "Anguilla-wallblake",
        "type": "airport",
        "cityId": null,
        "country": {
          "code": "AI",
          "name": "ANGUILLA"
        }
      },
      {
        "code": "AXB",
        "name": "Alexandria Bay",
        "type": "airport",
        "cityId": null,
        "country": {
          "code": "US",
          "name": "USA"
        }
      },
      {
        "code": "AXC",
        "name": "Aramac",
        "type": "airport",
        "cityId": null,
        "country": {
          "code": "AU",
          "name": "AUSTRALIA"
        }
      },
      {
        "code": "AXD",
        "name": "Alexandroupolis",
        "type": "airport",
        "cityId": null,
        "country": {
          "code": "GR",
          "name": "GREECE"
        }
      },
      {
        "code": "AXK",
        "name": "Ataq",
        "type": "airport",
        "cityId": null,
        "country": {
          "code": "YE",
          "name": "Yemen"
        }
      },
      {
        "code": "AXM",
        "name": "Armenia",
        "type": "airport",
        "cityId": null,
        "country": {
          "code": "CO",
          "name": "COLOMBIA"
        }
      },
      {
        "code": "AXN",
        "name": "Alexandria",
        "type": "airport",
        "cityId": null,
        "country": {
          "code": "US",
          "name": "USA"
        }
      },
      {
        "code": "AXP",
        "name": "Spring Point",
        "type": "airport",
        "cityId": null,
        "country": {
          "code": "BS",
          "name": "BAHAMAS"
        }
      },
      {
        "code": "AXR",
        "name": "Arutua",
        "type": "airport",
        "cityId": null,
        "country": {
          "code": "PF",
          "name": "French Polynesia"
        }
      },
      {
        "code": "AXS",
        "name": "Altus Municipal",
        "type": "airport",
        "cityId": null,
        "country": {
          "code": "US",
          "name": "USA"
        }
      },
      {
        "code": "AXT",
        "name": "Akita",
        "type": "airport",
        "cityId": null,
        "country": {
          "code": "JP",
          "name": "JAPAN"
        }
      },
      {
        "code": "AXU",
        "name": "Axum",
        "type": "airport",
        "cityId": null,
        "country": {
          "code": "ET",
          "name": "ETHIOPIA"
        }
      },
      {
        "code": "AXX",
        "name": "Angel Fire",
        "type": "airport",
        "cityId": null,
        "country": {
          "code": "US",
          "name": "USA"
        }
      },
      {
        "code": "AYG",
        "name": "Yaguara",
        "type": "airport",
        "cityId": null,
        "country": {
          "code": "CO",
          "name": "COLOMBIA"
        }
      },
      {
        "code": "AYI",
        "name": "Yari",
        "type": "airport",
        "cityId": null,
        "country": {
          "code": "CO",
          "name": "COLOMBIA"
        }
      },
      {
        "code": "AYK",
        "name": "Arkalyk",
        "type": "airport",
        "cityId": null,
        "country": {
          "code": "KZ",
          "name": "KAZAKHSTAN"
        }
      },
      {
        "code": "AYL",
        "name": "Anthony Lagoon",
        "type": "airport",
        "cityId": null,
        "country": {
          "code": "AU",
          "name": "AUSTRALIA"
        }
      },
      {
        "code": "AYN",
        "name": "Anyang",
        "type": "airport",
        "cityId": null,
        "country": {
          "code": "CN",
          "name": "CHINA PEOPLES REP."
        }
      },
      {
        "code": "AYO",
        "name": "AYO",
        "type": "airport",
        "cityId": null,
        "country": {
          "code": "PY",
          "name": "PARAGUAY"
        }
      },
      {
        "code": "AYP",
        "name": "Ayacucho",
        "type": "airport",
        "cityId": null,
        "country": {
          "code": "PE",
          "name": "PERU"
        }
      },
      {
        "code": "AYQ",
        "name": "Ayers Rock",
        "type": "airport",
        "cityId": null,
        "country": {
          "code": "AU",
          "name": "AUSTRALIA"
        }
      },
      {
        "code": "AYR",
        "name": "Ayr",
        "type": "airport",
        "cityId": null,
        "country": {
          "code": "AU",
          "name": "AUSTRALIA"
        }
      },
      {
        "code": "AYS",
        "name": "Waycross",
        "type": "airport",
        "cityId": null,
        "country": {
          "code": "US",
          "name": "USA"
        }
      },
      {
        "code": "AYT",
        "name": "Antalya",
        "type": "airport",
        "cityId": null,
        "country": {
          "code": "TR",
          "name": "TURKEY"
        }
      },
      {
        "code": "AYU",
        "name": "Aiyura",
        "type": "airport",
        "cityId": null,
        "country": {
          "code": "PG",
          "name": "PAPUA NEW GUINEA"
        }
      },
      {
        "code": "AYW",
        "name": "Ayawasi",
        "type": "airport",
        "cityId": null,
        "country": {
          "code": "ID",
          "name": "INDONESIA"
        }
      },
      {
        "code": "AZB",
        "name": "Amazon Bay",
        "type": "airport",
        "cityId": null,
        "country": {
          "code": "PG",
          "name": "PAPUA NEW GUINEA"
        }
      },
      {
        "code": "AZD",
        "name": "Yazd",
        "type": "airport",
        "cityId": null,
        "country": {
          "code": "IR",
          "name": "IRAN ISLAMIC REP. OF"
        }
      },
      {
        "code": "AZG",
        "name": "Apatzingan",
        "type": "airport",
        "cityId": null,
        "country": {
          "code": "MX",
          "name": "MEXICO"
        }
      },
      {
        "code": "AZI",
        "name": "Abu Dhabi Bateen",
        "type": "airport",
        "cityId": null,
        "country": {
          "code": "AE",
          "name": "UNITED ARAB EMIRATES"
        }
      },
      {
        "code": "AZN",
        "name": "Andizhan",
        "type": "airport",
        "cityId": null,
        "country": {
          "code": "UZ",
          "name": "UZBEKISTAN"
        }
      },
      {
        "code": "AZO",
        "name": "Kalamazoo",
        "type": "airport",
        "cityId": null,
        "country": {
          "code": "US",
          "name": "USA"
        }
      },
      {
        "code": "AZP",
        "name": "Mexico City Azitapan",
        "type": "airport",
        "cityId": null,
        "country": {
          "code": "MX",
          "name": "MEXICO"
        }
      },
      {
        "code": "AZR",
        "name": "Adrar",
        "type": "airport",
        "cityId": null,
        "country": {
          "code": "DZ",
          "name": "ALGERIA"
        }
      },
      {
        "code": "AZZ",
        "name": "Ambriz",
        "type": "airport",
        "cityId": null,
        "country": {
          "code": "AO",
          "name": "ANGOLA"
        }
      },
      {
        "code": "BAA",
        "name": "Bialla",
        "type": "airport",
        "cityId": null,
        "country": {
          "code": "PG",
          "name": "PAPUA NEW GUINEA"
        }
      },
      {
        "code": "BAB",
        "name": "Marysville",
        "type": "airport",
        "cityId": null,
        "country": {
          "code": "US",
          "name": "USA"
        }
      },
      {
        "code": "BAC",
        "name": "Barranca De Upia",
        "type": "airport",
        "cityId": null,
        "country": {
          "code": "CO",
          "name": "COLOMBIA"
        }
      },
      {
        "code": "BAD",
        "name": "Shreveport Barksdale Afb",
        "type": "airport",
        "cityId": null,
        "country": {
          "code": "US",
          "name": "USA"
        }
      },
      {
        "code": "BAE",
        "name": "Barcelonnette",
        "type": "airport",
        "cityId": null,
        "country": {
          "code": "FR",
          "name": "FRANCE"
        }
      },
      {
        "code": "BAF",
        "name": "Westfield",
        "type": "airport",
        "cityId": null,
        "country": {
          "code": "US",
          "name": "USA"
        }
      },
      {
        "code": "BAG",
        "name": "Baguio",
        "type": "airport",
        "cityId": null,
        "country": {
          "code": "PH",
          "name": "PHILIPPINES"
        }
      },
      {
        "code": "BAH",
        "name": "Bahrain-intl",
        "type": "airport",
        "cityId": null,
        "country": {
          "code": "BH",
          "name": "KINGDOM OF BAHRAIN"
        }
      },
      {
        "code": "BAJ",
        "name": "Bali",
        "type": "airport",
        "cityId": null,
        "country": {
          "code": "PG",
          "name": "PAPUA NEW GUINEA"
        }
      },
      {
        "code": "BAK",
        "name": "Baku",
        "type": "airport",
        "cityId": null,
        "country": {
          "code": "AZ",
          "name": "AZERBAIJAN"
        }
      },
      {
        "code": "BAL",
        "name": "Batman",
        "type": "airport",
        "cityId": null,
        "country": {
          "code": "TR",
          "name": "TURKEY"
        }
      },
      {
        "code": "BAM",
        "name": "Battle Mountain",
        "type": "airport",
        "cityId": null,
        "country": {
          "code": "US",
          "name": "USA"
        }
      },
      {
        "code": "BAO",
        "name": "Ban Mak Khaeng",
        "type": "airport",
        "cityId": null,
        "country": {
          "code": "TH",
          "name": "THAILAND"
        }
      },
      {
        "code": "BAP",
        "name": "Baibara",
        "type": "airport",
        "cityId": null,
        "country": {
          "code": "PG",
          "name": "PAPUA NEW GUINEA"
        }
      },
      {
        "code": "BAQ",
        "name": "Barranquilla",
        "type": "airport",
        "cityId": null,
        "country": {
          "code": "CO",
          "name": "COLOMBIA"
        }
      },
      {
        "code": "BAS",
        "name": "Balalae",
        "type": "airport",
        "cityId": null,
        "country": {
          "code": "SB",
          "name": "SOLOMON ISLANDS"
        }
      },
      {
        "code": "BAT",
        "name": "Barretos",
        "type": "airport",
        "cityId": null,
        "country": {
          "code": "BR",
          "name": "BRAZIL"
        }
      },
      {
        "code": "BAU",
        "name": "Bauru",
        "type": "airport",
        "cityId": null,
        "country": {
          "code": "BR",
          "name": "BRAZIL"
        }
      },
      {
        "code": "BAV",
        "name": "Baotou",
        "type": "airport",
        "cityId": null,
        "country": {
          "code": "CN",
          "name": "CHINA PEOPLES REP."
        }
      },
      {
        "code": "BAX",
        "name": "Barnaul",
        "type": "airport",
        "cityId": null,
        "country": {
          "code": "RU",
          "name": "RUSSIAN FEDERATION"
        }
      },
      {
        "code": "BAY",
        "name": "Baia Mare",
        "type": "airport",
        "cityId": null,
        "country": {
          "code": "RO",
          "name": "ROMANIA"
        }
      },
      {
        "code": "BAZ",
        "name": "Barcelos",
        "type": "airport",
        "cityId": null,
        "country": {
          "code": "BR",
          "name": "BRAZIL"
        }
      }
     
    ]
  }